<?xml version="1.0" encoding="UTF-8"?>
<svg width="135px" height="31px" viewBox="0 0 135 31" version="1.1" xmlns="http://www.w3.org/2000/svg" xmlns:xlink="http://www.w3.org/1999/xlink">
    <g id="Maersk-Logo-RGB/Primary/No-Border" stroke="none" stroke-width="1" fill="none" fill-rule="evenodd">
        <g id="Maersk-Logo-RGB/Primary">
            <polyline id="Fill-4" fill="#0A0B09" points="41.179633 21.6666055 41.179633 8.46880734 44.6915596 8.46880734 49.1414679 18.3313761 53.5253211 8.46880734 56.8897248 8.46880734 56.8897248 21.6666055 53.9937615 21.6666055 53.9937615 13.9888073 50.6524771 21.6666055 47.5655046 21.6666055 44.1812844 14.0306422 44.1812844 21.6666055 41.179633 21.6666055"/>
            <path d="M68.5440367,16.5566972 L66.1209174,10.9623853 L63.7533945,16.5566972 L68.5440367,16.5566972 Z M61.5873394,21.6666055 L58.1816514,21.6666055 L64.0357798,8.46880734 L68.2286239,8.46880734 L74.1245872,21.6666055 L70.7629358,21.6666055 L69.6025688,19.0376147 L62.7119266,19.0376147 L61.5873394,21.6666055 Z" id="Fill-5" fill="#0A0B09"/>
            <polyline id="Fill-6" fill="#0A0B09" points="75.4825688 21.6666055 75.4825688 8.46880734 88.0836697 8.46880734 88.0836697 11.1077064 78.526055 11.1077064 78.526055 13.7289908 86.7207339 13.7289908 86.7207339 16.3045872 78.526055 16.3045872 78.526055 19.0266055 88.106789 19.0266055 88.106789 21.6666055 75.4825688 21.6666055"/>
            <path d="M93.6444037,14.5288073 L100.265321,14.5288073 L100.265321,11.1077064 L93.6444037,11.1077064 L93.6444037,14.5288073 Z M90.5579817,21.6666055 L90.5579817,8.46880734 L101.102569,8.46880734 C102.511193,8.46880734 103.329174,9.2840367 103.329174,10.6822018 L103.329174,15.1161468 C103.329174,16.1361468 102.425872,17.0581651 100.674862,17.0581651 C100.57578,17.0631193 100.474495,17.0581651 100.370459,17.0581651 L103.439817,21.6666055 L100.052294,21.6666055 L97.1420183,17.153945 L93.6444037,17.153945 L93.6444037,21.6666055 L90.5579817,21.6666055 Z" id="Fill-7" fill="#0A0B09"/>
            <path d="M108.881651,21.6743119 L107.836881,21.6743119 C106.472844,21.6743119 105.816147,20.886055 105.816147,19.7383486 L105.816147,18.0143119 L108.881651,18.0143119 L108.881651,19.0354128 L115.395229,19.0354128 L115.395229,16.3337615 C115.395229,16.3337615 109.116147,16.3337615 107.923853,16.3337615 C106.731009,16.3337615 105.871743,15.5317431 105.871743,14.4187156 L105.871743,10.5005505 C105.871743,9.31486239 106.806972,8.47706422 107.944771,8.47706422 C109.082018,8.47706422 116.485688,8.47706422 116.485688,8.47706422 C117.64,8.47706422 118.438716,9.33853211 118.438716,10.5842202 C118.438716,11.8282569 118.438716,12.1590826 118.438716,12.1590826 L115.395229,12.1590826 L115.395229,11.1159633 L108.881651,11.1159633 L108.881651,13.7152294 L116.33156,13.7152294 C117.431376,13.7152294 118.438716,14.4429358 118.438716,15.8438532 L118.438716,19.6106422 C118.438716,20.8937615 117.726972,21.6743119 116.395963,21.6743119 C115.064954,21.6743119 108.881651,21.6743119 108.881651,21.6743119" id="Fill-8" fill="#0A0B09"/>
            <polyline id="Fill-9" fill="#0A0B09" points="121.380367 21.6743119 121.380367 8.47541284 124.509174 8.47541284 124.509174 13.7543119 130.468991 8.47541284 134.705321 8.47541284 127.595596 14.606422 134.961284 21.6743119 130.575229 21.6743119 124.509174 15.6710092 124.509174 21.6743119 121.380367 21.6743119"/>
            <path d="M28.5543119,26.6306422 C28.5543119,28.5170642 27.0256881,30.0462385 25.1392661,30.0462385 L3.58110092,30.0462385 C1.69412844,30.0462385 0.164954128,28.5170642 0.164954128,26.6306422 L0.164954128,3.50311927 C0.164954128,1.61669725 1.69412844,0.0869724771 3.58110092,0.0869724771 L25.1392661,0.0869724771 C27.0256881,0.0869724771 28.5543119,1.61669725 28.5543119,3.50311927 L28.5543119,26.6306422" id="Fill-10" fill="#42B0D5"/>
            <polyline id="Fill-11" fill="#FFFFFE" points="18.8855046 14.2893578 24.4875229 7.26385321 24.4699083 7.2412844 16.3737615 11.1401835 14.373945 2.37908257 14.3458716 2.37908257 12.346055 11.1401835 4.24990826 7.2412844 4.23229358 7.26385321 9.83486239 14.2893578 1.73816514 18.1882569 1.7453211 18.2157798 10.7310092 18.2157798 8.73119266 26.9774312 8.75651376 26.9889908 14.3601835 19.9634862 19.9627523 26.9889908 19.9880734 26.9763303 17.9893578 18.2157798 26.9750459 18.2157798 26.9816514 18.1882569 18.8855046 14.2893578"/>
        </g>
    </g>
</svg>